lab2_fsm/fsm_practica2/fsm_practica2.sim/sim_1/behav/xsim/control_tb.vcd
$date
   Sun May 11 23:40:33 2025
$end

$version
  2024.2.0
  $dumpfile ("control_tb.vcd") 
$end

$timescale
  1ps
$end

$scope module tb_control $end
$var reg 1 ! clk $end
$var reg 1 " reset $end
$var reg 1 # sensor_entrada $end
$var reg 1 $ sensor_salida $end
$var wire 1 % puerta_abierta $end
$var wire 1 & puerta_cerrada $end
$var wire 1 ' puerta_movimiento $end
$scope module uut $end
$var wire 1 ( clk $end
$var wire 1 ) reset $end
$var wire 1 * sensor_entrada $end
$var wire 1 + sensor_salida $end
$var reg 1 , puerta_abierta $end
$var reg 1 - puerta_cerrada $end
$var reg 1 . puerta_movimiento $end
$var reg 2 / estado_actual [1:0] $end
$var reg 2 0 estado_siguiente [1:0] $end
$var reg 27 1 div_counter [26:0] $end
$var reg 1 2 tiempo_1Hz $end
$var reg 5 3 contador [4:0] $end
$upscope $end
$upscope $end
$enddefinitions $end

#0
$dumpvars
0!
1"
0#
0$
0%
1&
0'
0(
1)
0*
0+
0,
1-
0.
b0 /
b0 0
b0 1
02
b0 3
$end

#4000
1!
1(

#8000
0!
0(

#12000
1!
1(

#16000
0!
0(

#20000
1!
0"
1(
0)
b1 1

#24000
0!
0(

#28000
1!
1(
b10 1

#32000
0!
0(

#36000
1!
1(
b11 1

#40000
0!
0(

#44000
1!
1(
b100 1

#48000
0!
0(

#52000
1!
1(
b101 1

#56000
0!
0(

#60000
1!
1(
b110 1

#64000
0!
0(

#68000
1!
1(
b111 1

#72000
0!
0(

#76000
1!
1(
b1000 1

#80000
0!
0(

#84000
1!
1(
b1001 1

#88000
0!
0(

#92000
1!
1(
b1010 1

#96000
0!
0(

#100000
1!
1(
b1011 1

#104000
0!
0(

#108000
1!
1(
b1100 1

#112000
0!
0(

#116000
1!
1(
b1101 1

#120000
0!
1#
0(
1*
b1 0

#124000
1!
0&
1'
1(
0-
1.
b1 /
b1110 1

#128000
0!
0(

#132000
1!
1(
b1111 1

#136000
0!
0(

#140000
1!
0#
1(
0*
b10000 1

#144000
0!
0(

#148000
1!
1(
b10001 1

#152000
0!
0(

#156000
1!
1(
b10010 1

#160000
0!
0(

#164000
1!
1(
b10011 1

#168000
0!
0(

#172000
1!
1(
b10100 1

#176000
0!
0(

#180000
1!
1(
b10101 1

#184000
0!
0(

#188000
1!
1(
b10110 1

#192000
0!
0(

#196000
1!
1(
b10111 1

#200000
0!
0(

#204000
1!
1(
b11000 1

#208000
0!
0(

#212000
1!
1(
b11001 1

#216000
0!
0(

#220000
1!
1(
b11010 1

#224000
0!
0(

#228000
1!
1(
b11011 1

#232000
0!
0(

#236000
1!
1(
b11100 1

#240000
0!
0(

#244000
1!
1(
b11101 1

#248000
0!
0(

#252000
1!
1(
b11110 1

#256000
0!
0(

#260000
1!
1(
b11111 1

#264000
0!
0(

#268000
1!
1(
b100000 1

#272000
0!
0(

#276000
1!
1(
b100001 1

#280000
0!
0(

#284000
1!
1(
b100010 1

#288000
0!
0(

#292000
1!
1(
b100011 1

#296000
0!
0(

#300000
1!
1(
b100100 1

#304000
0!
0(

#308000
1!
1(
b100101 1

#312000
0!
0(

#316000
1!
1(
b100110 1

#320000
0!
0(

#324000
1!
1(
b100111 1

#328000
0!
0(

#332000
1!
1(
b101000 1

#336000
0!
0(

#340000
1!
1(
b101001 1

#344000
0!
0(

#348000
1!
1(
b101010 1

#352000
0!
0(

#356000
1!
1(
b101011 1

#360000
0!
0(

#364000
1!
1(
b101100 1

#368000
0!
0(

#372000
1!
1(
b101101 1

#376000
0!
0(

#380000
1!
1(
b101110 1

#384000
0!
0(

#388000
1!
1(
b101111 1

#392000
0!
0(

#396000
1!
1(
b110000 1

#400000
0!
0(

#404000
1!
1(
b110001 1

#408000
0!
0(

#412000
1!
1(
b110010 1

#416000
0!
0(

#420000
1!
1(
b110011 1

#424000
0!
0(

#428000
1!
1(
b110100 1

#432000
0!
0(

#436000
1!
1(
b110101 1

#440000
0!
0(

#444000
1!
1(
b110110 1

#448000
0!
0(

#452000
1!
1(
b110111 1

#456000
0!
0(

#460000
1!
1(
b111000 1

#464000
0!
0(

#468000
1!
1(
b111001 1

#472000
0!
0(

#476000
1!
1(
b111010 1

#480000
0!
0(

#484000
1!
1(
b111011 1

#488000
0!
0(

#492000
1!
1(
b111100 1

#496000
0!
0(

#500000
1!
1(
b111101 1

#504000
0!
0(

#508000
1!
1(
b111110 1

#512000
0!
0(

#516000
1!
1(
b111111 1

#520000
0!
0(

#524000
1!
1(
b1000000 1

#528000
0!
0(

#532000
1!
1(
b1000001 1

#536000
0!
0(

#540000
1!
1(
b1000010 1

#544000
0!
0(

#548000
1!
1(
b1000011 1

#552000
0!
0(

#556000
1!
1(
b1000100 1

#560000
0!
0(

#564000
1!
1(
b1000101 1

#568000
0!
0(

#572000
1!
1(
b1000110 1

#576000
0!
0(

#580000
1!
1(
b1000111 1

#584000
0!
0(

#588000
1!
1(
b1001000 1

#592000
0!
0(

#596000
1!
1(
b1001001 1

#600000
0!
0(

#604000
1!
1(
b1001010 1

#608000
0!
0(

#612000
1!
1(
b1001011 1

#616000
0!
0(

#620000
1!
1(
b1001100 1

#624000
0!
0(

#628000
1!
1(
b1001101 1

#632000
0!
0(

#636000
1!
1(
b1001110 1

#640000
0!
0(

#644000
1!
1(
b1001111 1

#648000
0!
0(

#652000
1!
1(
b1010000 1

#656000
0!
0(

#660000
1!
1(
b1010001 1

#664000
0!
0(

#668000
1!
1(
b1010010 1

#672000
0!
0(

#676000
1!
1(
b1010011 1

#680000
0!
0(

#684000
1!
1(
b1010100 1

#688000
0!
0(

#692000
1!
1(
b1010101 1

#696000
0!
0(

#700000
1!
1(
b1010110 1

#704000
0!
0(

#708000
1!
1(
b1010111 1

#712000
0!
0(

#716000
1!
1(
b1011000 1

#720000
0!
0(

#724000
1!
1(
b1011001 1

#728000
0!
0(

#732000
1!
1(
b1011010 1

#736000
0!
0(

#740000
1!
1(
b1011011 1

#744000
0!
0(

#748000
1!
1(
b1011100 1

#752000
0!
0(

#756000
1!
1(
b1011101 1

#760000
0!
0(

#764000
1!
1(
b1011110 1

#768000
0!
0(

#772000
1!
1(
b1011111 1

#776000
0!
0(

#780000
1!
1(
b1100000 1

#784000
0!
0(

#788000
1!
1(
b1100001 1

#792000
0!
0(

#796000
1!
1(
b1100010 1

#800000
0!
0(

#804000
1!
1(
b1100011 1

#808000
0!
0(

#812000
1!
1(
b1100100 1

#816000
0!
0(

#820000
1!
1(
b1100101 1

#824000
0!
0(

#828000
1!
1(
b1100110 1

#832000
0!
0(

#836000
1!
1(
b1100111 1

#840000
0!
0(

#844000
1!
1(
b1101000 1

#848000
0!
0(

#852000
1!
1(
b1101001 1

#856000
0!
0(

#860000
1!
1(
b1101010 1

#864000
0!
0(

#868000
1!
1(
b1101011 1

#872000
0!
0(

#876000
1!
1(
b1101100 1

#880000
0!
0(

#884000
1!
1(
b1101101 1

#888000
0!
0(

#892000
1!
1(
b1101110 1

#896000
0!
0(

#900000
1!
1(
b1101111 1

#904000
0!
0(

#908000
1!
1(
b1110000 1

#912000
0!
0(

#916000
1!
1(
b1110001 1

#920000
0!
0(

#924000
1!
1(
b1110010 1

#928000
0!
0(

#932000
1!
1(
b1110011 1

#936000
0!
0(

#940000
1!
1(
b1110100 1

#944000
0!
0(

#948000
1!
1(
b1110101 1

#952000
0!
0(

#956000
1!
1(
b1110110 1

#960000
0!
0(

#964000
1!
1(
b1110111 1

#968000
0!
0(

#972000
1!
1(
b1111000 1

#976000
0!
0(

#980000
1!
1(
b1111001 1

#984000
0!
0(

#988000
1!
1(
b1111010 1

#992000
0!
0(

#996000
1!
1(
b1111011 1

